<?xml version="1.0" encoding="utf-8"?>
<!DOCTYPE eagle SYSTEM "eagle.dtd">
<eagle version="7.2.0">
<drawing>
<settings>
<setting alwaysvectorfont="no"/>
<setting verticaltext="up"/>
</settings>
<grid distance="0.1" unitdist="inch" unit="inch" style="lines" multiple="1" display="no" altdistance="0.01" altunitdist="inch" altunit="inch"/>
<layers>
<layer number="1" name="Top" color="4" fill="1" visible="yes" active="yes"/>
<layer number="16" name="Bottom" color="1" fill="1" visible="yes" active="yes"/>
<layer number="17" name="Pads" color="2" fill="1" visible="yes" active="yes"/>
<layer number="18" name="Vias" color="2" fill="1" visible="yes" active="yes"/>
<layer number="19" name="Unrouted" color="6" fill="1" visible="yes" active="yes"/>
<layer number="20" name="Dimension" color="15" fill="1" visible="yes" active="yes"/>
<layer number="21" name="tPlace" color="7" fill="1" visible="yes" active="yes"/>
<layer number="22" name="bPlace" color="7" fill="1" visible="yes" active="yes"/>
<layer number="23" name="tOrigins" color="15" fill="1" visible="yes" active="yes"/>
<layer number="24" name="bOrigins" color="15" fill="1" visible="yes" active="yes"/>
<layer number="25" name="tNames" color="7" fill="1" visible="yes" active="yes"/>
<layer number="26" name="bNames" color="7" fill="1" visible="yes" active="yes"/>
<layer number="27" name="tValues" color="7" fill="1" visible="yes" active="yes"/>
<layer number="28" name="bValues" color="7" fill="1" visible="yes" active="yes"/>
<layer number="29" name="tStop" color="7" fill="3" visible="no" active="yes"/>
<layer number="30" name="bStop" color="7" fill="6" visible="no" active="yes"/>
<layer number="31" name="tCream" color="7" fill="4" visible="no" active="yes"/>
<layer number="32" name="bCream" color="7" fill="5" visible="no" active="yes"/>
<layer number="33" name="tFinish" color="6" fill="3" visible="no" active="yes"/>
<layer number="34" name="bFinish" color="6" fill="6" visible="no" active="yes"/>
<layer number="35" name="tGlue" color="7" fill="4" visible="no" active="yes"/>
<layer number="36" name="bGlue" color="7" fill="5" visible="no" active="yes"/>
<layer number="37" name="tTest" color="7" fill="1" visible="no" active="yes"/>
<layer number="38" name="bTest" color="7" fill="1" visible="no" active="yes"/>
<layer number="39" name="tKeepout" color="4" fill="11" visible="yes" active="yes"/>
<layer number="40" name="bKeepout" color="1" fill="11" visible="yes" active="yes"/>
<layer number="41" name="tRestrict" color="4" fill="10" visible="yes" active="yes"/>
<layer number="42" name="bRestrict" color="1" fill="10" visible="yes" active="yes"/>
<layer number="43" name="vRestrict" color="2" fill="10" visible="yes" active="yes"/>
<layer number="44" name="Drills" color="7" fill="1" visible="no" active="yes"/>
<layer number="45" name="Holes" color="7" fill="1" visible="yes" active="yes"/>
<layer number="46" name="Milling" color="3" fill="1" visible="no" active="yes"/>
<layer number="47" name="Measures" color="7" fill="1" visible="no" active="yes"/>
<layer number="48" name="Document" color="7" fill="1" visible="yes" active="yes"/>
<layer number="49" name="Reference" color="7" fill="1" visible="yes" active="yes"/>
<layer number="51" name="tDocu" color="7" fill="1" visible="yes" active="yes"/>
<layer number="52" name="bDocu" color="7" fill="1" visible="yes" active="yes"/>
<layer number="90" name="Modules" color="5" fill="1" visible="yes" active="yes"/>
<layer number="91" name="Nets" color="2" fill="1" visible="yes" active="yes"/>
<layer number="92" name="Busses" color="1" fill="1" visible="yes" active="yes"/>
<layer number="93" name="Pins" color="2" fill="1" visible="yes" active="yes"/>
<layer number="94" name="Symbols" color="4" fill="1" visible="yes" active="yes"/>
<layer number="95" name="Names" color="7" fill="1" visible="yes" active="yes"/>
<layer number="96" name="Values" color="7" fill="1" visible="yes" active="yes"/>
<layer number="97" name="Info" color="7" fill="1" visible="yes" active="yes"/>
<layer number="98" name="Guide" color="6" fill="1" visible="yes" active="yes"/>
</layers>
<library>
<packages>
<package name="SO-16">
<smd name="P$1" x="0" y="0" dx="1.25" dy="0.55" layer="1"/>
<smd name="P$2" x="0" y="-1.27" dx="1.25" dy="0.55" layer="1"/>
<smd name="P$3" x="0" y="-2.54" dx="1.25" dy="0.55" layer="1"/>
<smd name="P$4" x="0" y="-3.81" dx="1.25" dy="0.55" layer="1"/>
<smd name="P$5" x="0" y="-5.08" dx="1.25" dy="0.55" layer="1"/>
<smd name="P$6" x="0" y="-6.35" dx="1.25" dy="0.55" layer="1"/>
<smd name="P$7" x="0" y="-7.62" dx="1.25" dy="0.55" layer="1"/>
<smd name="P$8" x="0" y="-8.89" dx="1.25" dy="0.55" layer="1"/>
<smd name="P$16" x="5.35" y="0" dx="1.25" dy="0.55" layer="1"/>
<smd name="P$15" x="5.35" y="-1.27" dx="1.25" dy="0.55" layer="1"/>
<smd name="P$14" x="5.35" y="-2.54" dx="1.25" dy="0.55" layer="1"/>
<smd name="P$13" x="5.35" y="-3.81" dx="1.25" dy="0.55" layer="1"/>
<smd name="P$12" x="5.35" y="-5.08" dx="1.25" dy="0.55" layer="1"/>
<smd name="P$11" x="5.35" y="-6.35" dx="1.25" dy="0.55" layer="1"/>
<smd name="P$10" x="5.35" y="-7.62" dx="1.25" dy="0.55" layer="1"/>
<smd name="P$9" x="5.35" y="-8.89" dx="1.25" dy="0.55" layer="1"/>
<wire x1="1.3375" y1="0.66875" x2="1.3375" y2="-10.03125" width="0.127" layer="21"/>
<wire x1="1.3375" y1="-10.03125" x2="4.0125" y2="-10.03125" width="0.127" layer="21"/>
<wire x1="4.0125" y1="-10.03125" x2="4.0125" y2="0.66875" width="0.127" layer="21"/>
<wire x1="4.0125" y1="0.66875" x2="3.34375" y2="0.66875" width="0.127" layer="21"/>
<wire x1="1.3375" y1="0.66875" x2="2.00625" y2="0.66875" width="0.127" layer="21"/>
<wire x1="2.00625" y1="0.66875" x2="2.675" y2="0" width="0.127" layer="21" curve="90"/>
<wire x1="3.34375" y1="0.66875" x2="2.675" y2="0" width="0.127" layer="21" curve="-90"/>
<text x="3.34375" y="-8.69375" size="0.6096" layer="21" rot="R90">STP08CP05MTR</text>
<text x="2.675" y="-8.69375" size="0.6096" layer="21" rot="R90">&gt;NAME</text>
</package>
<package name="MPU-6050">
<smd name="P$1" x="0" y="0" dx="0.8" dy="0.35" layer="1"/>
<smd name="P$2" x="0" y="-0.5" dx="0.8" dy="0.35" layer="1"/>
<smd name="P$3" x="0" y="-1" dx="0.8" dy="0.35" layer="1"/>
<smd name="P$4" x="0" y="-1.5" dx="0.8" dy="0.35" layer="1"/>
<smd name="P$5" x="0" y="-2" dx="0.8" dy="0.35" layer="1"/>
<smd name="P$6" x="0" y="-2.5" dx="0.8" dy="0.35" layer="1"/>
<smd name="P$18" x="4" y="0" dx="0.8" dy="0.35" layer="1"/>
<smd name="P$17" x="4" y="-0.5" dx="0.8" dy="0.35" layer="1"/>
<smd name="P$16" x="4" y="-1" dx="0.8" dy="0.35" layer="1"/>
<smd name="P$15" x="4" y="-1.5" dx="0.8" dy="0.35" layer="1"/>
<smd name="P$14" x="4" y="-2" dx="0.8" dy="0.35" layer="1"/>
<smd name="P$13" x="4" y="-2.5" dx="0.8" dy="0.35" layer="1"/>
<smd name="P$24" x="0.725" y="0.7" dx="0.8" dy="0.35" layer="1" rot="R90"/>
<smd name="P$23" x="1.225" y="0.7" dx="0.8" dy="0.35" layer="1" rot="R90"/>
<smd name="P$22" x="1.725" y="0.7" dx="0.8" dy="0.35" layer="1" rot="R90"/>
<smd name="P$21" x="2.225" y="0.7" dx="0.8" dy="0.35" layer="1" rot="R90"/>
<smd name="P$20" x="2.725" y="0.7" dx="0.8" dy="0.35" layer="1" rot="R90"/>
<smd name="P$19" x="3.225" y="0.7" dx="0.8" dy="0.35" layer="1" rot="R90"/>
<smd name="P$7" x="0.725" y="-3.2" dx="0.8" dy="0.35" layer="1" rot="R90"/>
<smd name="P$8" x="1.225" y="-3.2" dx="0.8" dy="0.35" layer="1" rot="R90"/>
<smd name="P$9" x="1.725" y="-3.2" dx="0.8" dy="0.35" layer="1" rot="R90"/>
<smd name="P$10" x="2.225" y="-3.2" dx="0.8" dy="0.35" layer="1" rot="R90"/>
<smd name="P$11" x="2.725" y="-3.2" dx="0.8" dy="0.35" layer="1" rot="R90"/>
<smd name="P$12" x="3.225" y="-3.2" dx="0.8" dy="0.35" layer="1" rot="R90"/>
<wire x1="3.25" y1="0" x2="3.25" y2="-2.5" width="0.127" layer="21"/>
<wire x1="3.25" y1="-2.5" x2="0.75" y2="-2.5" width="0.127" layer="21"/>
<wire x1="0.75" y1="-2.5" x2="0.75" y2="-1" width="0.127" layer="21"/>
<wire x1="0.75" y1="-1" x2="1.75" y2="0" width="0.127" layer="21"/>
<wire x1="1.75" y1="0" x2="3.25" y2="0" width="0.127" layer="21"/>
<circle x="0.825" y="-0.15" radius="0.15" width="0.0635" layer="21"/>
<text x="1" y="-2" size="0.3048" layer="21">MPU-6050</text>
</package>
<package name="CC25-XXXXXF-E">
<pad name="P$1" x="0" y="0" drill="1.1" diameter="1.27" shape="long"/>
<pad name="P$2" x="0" y="-2.54" drill="1.1" diameter="1.27" shape="long"/>
<pad name="P$3" x="0" y="-5.08" drill="1.1" diameter="1.27" shape="long"/>
<pad name="P$4" x="0" y="-7.62" drill="1.1" diameter="1.27" shape="long"/>
<pad name="P$5" x="0" y="-10.16" drill="1.1" diameter="1.27" shape="long"/>
<pad name="P$6" x="0" y="-12.7" drill="1.1" diameter="1.27" shape="long"/>
<pad name="P$7" x="0" y="-17.78" drill="1.1" diameter="1.27" shape="long"/>
<pad name="P$8" x="0" y="-20.32" drill="1.1" diameter="1.27" shape="long"/>
<pad name="P$9" x="0" y="-22.86" drill="1.1" diameter="1.27" shape="long"/>
<pad name="P$10" x="0" y="-27.94" drill="1.1" diameter="1.27" shape="long"/>
<pad name="P$11" x="0" y="-30.48" drill="1.1" diameter="1.27" shape="long"/>
<pad name="P$12" x="0" y="-33.02" drill="1.1" diameter="1.27" shape="long"/>
<pad name="P$13" x="0" y="-35.56" drill="1.1" diameter="1.27" shape="long"/>
<pad name="P$14" x="42.65" y="-35.56" drill="1.1" diameter="1.27" shape="long"/>
<pad name="P$15" x="42.65" y="-33.02" drill="1.1" diameter="1.27" shape="long"/>
<pad name="P$16" x="42.65" y="-30.48" drill="1.1" diameter="1.27" shape="long"/>
<pad name="P$17" x="42.65" y="-27.94" drill="1.1" diameter="1.27" shape="long"/>
<pad name="P$18" x="42.65" y="-25.4" drill="1.1" diameter="1.27" shape="long"/>
<pad name="P$19" x="42.65" y="-22.86" drill="1.1" diameter="1.27" shape="long"/>
<pad name="P$20" x="42.65" y="-20.32" drill="1.1" diameter="1.27" shape="long"/>
<pad name="P$21" x="42.65" y="-17.78" drill="1.1" diameter="1.27" shape="long"/>
<pad name="P$22" x="42.65" y="-15.24" drill="1.1" diameter="1.27" shape="long"/>
<pad name="P$23" x="42.65" y="-12.7" drill="1.1" diameter="1.27" shape="long"/>
<pad name="P$24" x="42.65" y="-10.16" drill="1.1" diameter="1.27" shape="long"/>
<pad name="P$25" x="42.65" y="0" drill="1.1" diameter="1.27" shape="long"/>
<hole x="6.075" y="4.52" drill="2"/>
<hole x="36.575" y="-40.08" drill="2"/>
<wire x1="2.54" y1="0" x2="40.64" y2="0" width="0.127" layer="21"/>
<wire x1="40.64" y1="0" x2="40.64" y2="-35.56" width="0.127" layer="21"/>
<wire x1="40.64" y1="-35.56" x2="2.54" y2="-35.56" width="0.127" layer="21"/>
<wire x1="2.54" y1="-35.56" x2="2.54" y2="0" width="0.127" layer="21"/>
<text x="26.67" y="-34.29" size="1.27" layer="21">CC25-2405SF-E</text>
</package>
<package name="ATMEGA-2560">
<smd name="P$1" x="0" y="0" dx="1" dy="0.2" layer="1"/>
<smd name="P$2" x="0" y="-0.5" dx="1" dy="0.2" layer="1"/>
<smd name="P$3" x="0" y="-1" dx="1" dy="0.2" layer="1"/>
<smd name="P$4" x="0" y="-1.5" dx="1" dy="0.2" layer="1"/>
<smd name="P$5" x="0" y="-2" dx="1" dy="0.2" layer="1"/>
<smd name="P$6" x="0" y="-2.5" dx="1" dy="0.2" layer="1"/>
<smd name="P$7" x="0" y="-3" dx="1" dy="0.2" layer="1"/>
<smd name="P$8" x="0" y="-3.5" dx="1" dy="0.2" layer="1"/>
<smd name="P$9" x="0" y="-4" dx="1" dy="0.2" layer="1"/>
<smd name="P$10" x="0" y="-4.5" dx="1" dy="0.2" layer="1"/>
<smd name="P$11" x="0" y="-5" dx="1" dy="0.2" layer="1"/>
<smd name="P$12" x="0" y="-5.5" dx="1" dy="0.2" layer="1"/>
<smd name="P$13" x="0" y="-6" dx="1" dy="0.2" layer="1"/>
<smd name="P$14" x="0" y="-6.5" dx="1" dy="0.2" layer="1"/>
<smd name="P$15" x="0" y="-7" dx="1" dy="0.2" layer="1"/>
<smd name="P$16" x="0" y="-7.5" dx="1" dy="0.2" layer="1"/>
<smd name="P$17" x="0" y="-8" dx="1" dy="0.2" layer="1"/>
<smd name="P$18" x="0" y="-8.5" dx="1" dy="0.2" layer="1"/>
<smd name="P$19" x="0" y="-9" dx="1" dy="0.2" layer="1"/>
<smd name="P$20" x="0" y="-9.5" dx="1" dy="0.2" layer="1"/>
<smd name="P$21" x="0" y="-10" dx="1" dy="0.2" layer="1"/>
<smd name="P$22" x="0" y="-10.5" dx="1" dy="0.2" layer="1"/>
<smd name="P$23" x="0" y="-11" dx="1" dy="0.2" layer="1"/>
<smd name="P$24" x="0" y="-11.5" dx="1" dy="0.2" layer="1"/>
<smd name="P$25" x="0" y="-12" dx="1" dy="0.2" layer="1"/>
<smd name="P$38" x="7.5" y="-13.5" dx="1" dy="0.2" layer="1" rot="R90"/>
<smd name="P$37" x="7" y="-13.5" dx="1" dy="0.2" layer="1" rot="R90"/>
<smd name="P$36" x="6.5" y="-13.5" dx="1" dy="0.2" layer="1" rot="R90"/>
<smd name="P$35" x="6" y="-13.5" dx="1" dy="0.2" layer="1" rot="R90"/>
<smd name="P$34" x="5.5" y="-13.5" dx="1" dy="0.2" layer="1" rot="R90"/>
<smd name="P$33" x="5" y="-13.5" dx="1" dy="0.2" layer="1" rot="R90"/>
<smd name="P$32" x="4.5" y="-13.5" dx="1" dy="0.2" layer="1" rot="R90"/>
<smd name="P$31" x="4" y="-13.5" dx="1" dy="0.2" layer="1" rot="R90"/>
<smd name="P$30" x="3.5" y="-13.5" dx="1" dy="0.2" layer="1" rot="R90"/>
<smd name="P$29" x="3" y="-13.5" dx="1" dy="0.2" layer="1" rot="R90"/>
<smd name="P$28" x="2.5" y="-13.5" dx="1" dy="0.2" layer="1" rot="R90"/>
<smd name="P$27" x="2" y="-13.5" dx="1" dy="0.2" layer="1" rot="R90"/>
<smd name="P$26" x="1.5" y="-13.5" dx="1" dy="0.2" layer="1" rot="R90"/>
<smd name="P$39" x="8" y="-13.5" dx="1" dy="0.2" layer="1" rot="R90"/>
<smd name="P$40" x="8.5" y="-13.5" dx="1" dy="0.2" layer="1" rot="R90"/>
<smd name="P$41" x="9" y="-13.5" dx="1" dy="0.2" layer="1" rot="R90"/>
<smd name="P$42" x="9.5" y="-13.5" dx="1" dy="0.2" layer="1" rot="R90"/>
<smd name="P$43" x="10" y="-13.5" dx="1" dy="0.2" layer="1" rot="R90"/>
<smd name="P$44" x="10.5" y="-13.5" dx="1" dy="0.2" layer="1" rot="R90"/>
<smd name="P$45" x="11" y="-13.5" dx="1" dy="0.2" layer="1" rot="R90"/>
<smd name="P$46" x="11.5" y="-13.5" dx="1" dy="0.2" layer="1" rot="R90"/>
<smd name="P$47" x="12" y="-13.5" dx="1" dy="0.2" layer="1" rot="R90"/>
<smd name="P$48" x="12.5" y="-13.5" dx="1" dy="0.2" layer="1" rot="R90"/>
<smd name="P$49" x="13" y="-13.5" dx="1" dy="0.2" layer="1" rot="R90"/>
<smd name="P$50" x="13.5" y="-13.5" dx="1" dy="0.2" layer="1" rot="R90"/>
<smd name="P$51" x="15" y="-12" dx="1" dy="0.2" layer="1"/>
<smd name="P$52" x="15" y="-11.5" dx="1" dy="0.2" layer="1"/>
<smd name="P$53" x="15" y="-11" dx="1" dy="0.2" layer="1"/>
<smd name="P$54" x="15" y="-10.5" dx="1" dy="0.2" layer="1"/>
<smd name="P$55" x="15" y="-10" dx="1" dy="0.2" layer="1"/>
<smd name="P$56" x="15" y="-9.5" dx="1" dy="0.2" layer="1"/>
<smd name="P$57" x="15" y="-9" dx="1" dy="0.2" layer="1"/>
<smd name="P$58" x="15" y="-8.5" dx="1" dy="0.2" layer="1"/>
<smd name="P$59" x="15" y="-8" dx="1" dy="0.2" layer="1"/>
<smd name="P$60" x="15" y="-7.5" dx="1" dy="0.2" layer="1"/>
<smd name="P$61" x="15" y="-7" dx="1" dy="0.2" layer="1"/>
<smd name="P$62" x="15" y="-6.5" dx="1" dy="0.2" layer="1"/>
<smd name="P$63" x="15" y="-6" dx="1" dy="0.2" layer="1"/>
<smd name="P$64" x="15" y="-5.5" dx="1" dy="0.2" layer="1"/>
<smd name="P$65" x="15" y="-5" dx="1" dy="0.2" layer="1"/>
<smd name="P$66" x="15" y="-4.5" dx="1" dy="0.2" layer="1"/>
<smd name="P$67" x="15" y="-4" dx="1" dy="0.2" layer="1"/>
<smd name="P$68" x="15" y="-3.5" dx="1" dy="0.2" layer="1"/>
<smd name="P$69" x="15" y="-3" dx="1" dy="0.2" layer="1"/>
<smd name="P$70" x="15" y="-2.5" dx="1" dy="0.2" layer="1"/>
<smd name="P$71" x="15" y="-2" dx="1" dy="0.2" layer="1"/>
<smd name="P$72" x="15" y="-1.5" dx="1" dy="0.2" layer="1"/>
<smd name="P$73" x="15" y="-1" dx="1" dy="0.2" layer="1"/>
<smd name="P$74" x="15" y="-0.5" dx="1" dy="0.2" layer="1"/>
<smd name="P$75" x="15" y="0" dx="1" dy="0.2" layer="1"/>
<smd name="P$76" x="13.5" y="1.5" dx="1" dy="0.2" layer="1" rot="R90"/>
<smd name="P$77" x="13" y="1.5" dx="1" dy="0.2" layer="1" rot="R90"/>
<smd name="P$78" x="12.5" y="1.5" dx="1" dy="0.2" layer="1" rot="R90"/>
<smd name="P$79" x="12" y="1.5" dx="1" dy="0.2" layer="1" rot="R90"/>
<smd name="P$80" x="11.5" y="1.5" dx="1" dy="0.2" layer="1" rot="R90"/>
<smd name="P$81" x="11" y="1.5" dx="1" dy="0.2" layer="1" rot="R90"/>
<smd name="P$82" x="10.5" y="1.5" dx="1" dy="0.2" layer="1" rot="R90"/>
<smd name="P$83" x="10" y="1.5" dx="1" dy="0.2" layer="1" rot="R90"/>
<smd name="P$84" x="9.5" y="1.5" dx="1" dy="0.2" layer="1" rot="R90"/>
<smd name="P$85" x="9" y="1.5" dx="1" dy="0.2" layer="1" rot="R90"/>
<smd name="P$86" x="8.5" y="1.5" dx="1" dy="0.2" layer="1" rot="R90"/>
<smd name="P$87" x="8" y="1.5" dx="1" dy="0.2" layer="1" rot="R90"/>
<smd name="P$88" x="7.5" y="1.5" dx="1" dy="0.2" layer="1" rot="R90"/>
<smd name="P$89" x="7" y="1.5" dx="1" dy="0.2" layer="1" rot="R90"/>
<smd name="P$90" x="6.5" y="1.5" dx="1" dy="0.2" layer="1" rot="R90"/>
<smd name="P$91" x="6" y="1.5" dx="1" dy="0.2" layer="1" rot="R90"/>
<smd name="P$92" x="5.5" y="1.5" dx="1" dy="0.2" layer="1" rot="R90"/>
<smd name="P$93" x="5" y="1.5" dx="1" dy="0.2" layer="1" rot="R90"/>
<smd name="P$94" x="4.5" y="1.5" dx="1" dy="0.2" layer="1" rot="R90"/>
<smd name="P$95" x="4" y="1.5" dx="1" dy="0.2" layer="1" rot="R90"/>
<smd name="P$96" x="3.5" y="1.5" dx="1" dy="0.2" layer="1" rot="R90"/>
<smd name="P$97" x="3" y="1.5" dx="1" dy="0.2" layer="1" rot="R90"/>
<smd name="P$98" x="2.5" y="1.5" dx="1" dy="0.2" layer="1" rot="R90"/>
<smd name="P$99" x="2" y="1.5" dx="1" dy="0.2" layer="1" rot="R90"/>
<smd name="P$100" x="1.5" y="1.5" dx="1" dy="0.2" layer="1" rot="R90"/>
<wire x1="-1" y1="0.5" x2="-1" y2="-14.5" width="0.127" layer="21"/>
<wire x1="-1" y1="-14.5" x2="16" y2="-14.5" width="0.127" layer="21"/>
<wire x1="16" y1="-14.5" x2="16" y2="2.5" width="0.127" layer="21"/>
<wire x1="16" y1="2.5" x2="1" y2="2.5" width="0.127" layer="21"/>
<wire x1="1" y1="2.5" x2="-1" y2="0.5" width="0.127" layer="21"/>
<text x="1.5" y="-8" size="1.27" layer="21">&gt;$NAME</text>
<text x="1.5" y="-10" size="1.27" layer="21">&gt;ATmega2560</text>
</package>
<package name="16-TSSOP">
<smd name="P$1" x="0" y="0" dx="1" dy="0.25" layer="1"/>
<smd name="P$2" x="0" y="-0.65" dx="1" dy="0.25" layer="1"/>
<smd name="P$3" x="0" y="-1.3" dx="1" dy="0.25" layer="1"/>
<smd name="P$4" x="0" y="-1.95" dx="1" dy="0.25" layer="1"/>
<smd name="P$5" x="0" y="-2.6" dx="1" dy="0.25" layer="1"/>
<smd name="P$6" x="0" y="-3.25" dx="1" dy="0.25" layer="1"/>
<smd name="P$7" x="0" y="-3.9" dx="1" dy="0.25" layer="1"/>
<smd name="P$8" x="0" y="-4.55" dx="1" dy="0.25" layer="1"/>
<smd name="P$9" x="5.5" y="-4.55" dx="1" dy="0.25" layer="1"/>
<smd name="P$10" x="5.5" y="-3.9" dx="1" dy="0.25" layer="1"/>
<smd name="P$11" x="5.5" y="-3.25" dx="1" dy="0.25" layer="1"/>
<smd name="P$12" x="5.5" y="-2.6" dx="1" dy="0.25" layer="1"/>
<smd name="P$13" x="5.5" y="-1.95" dx="1" dy="0.25" layer="1"/>
<smd name="P$14" x="5.5" y="-1.3" dx="1" dy="0.25" layer="1"/>
<smd name="P$15" x="5.5" y="-0.65" dx="1" dy="0.25" layer="1"/>
<smd name="P$16" x="5.5" y="0" dx="1" dy="0.25" layer="1"/>
<wire x1="0.75" y1="0.25" x2="0.75" y2="-4.75" width="0.127" layer="21"/>
<wire x1="0.75" y1="-4.75" x2="4.75" y2="-4.75" width="0.127" layer="21"/>
<wire x1="4.75" y1="-4.75" x2="4.75" y2="0.25" width="0.127" layer="21"/>
<wire x1="4.75" y1="0.25" x2="3.5" y2="0.25" width="0.127" layer="21"/>
<wire x1="3.5" y1="0.25" x2="2.75" y2="-0.5" width="0.127" layer="21" curve="-90"/>
<wire x1="2.75" y1="-0.5" x2="2" y2="0.25" width="0.127" layer="21" curve="-90"/>
<wire x1="2" y1="0.25" x2="0.75" y2="0.25" width="0.127" layer="21"/>
<wire x1="-0.75" y1="1.75" x2="-0.75" y2="-5.25" width="0.127" layer="21"/>
<wire x1="-0.75" y1="-5.25" x2="6.5" y2="-5.25" width="0.127" layer="21"/>
<wire x1="6.5" y1="-5.25" x2="6.5" y2="1.75" width="0.127" layer="21"/>
<wire x1="6.5" y1="1.75" x2="-0.75" y2="1.75" width="0.127" layer="21"/>
<wire x1="1.25" y1="0" x2="1" y2="-0.25" width="0.127" layer="21" curve="90"/>
<wire x1="1.25" y1="-0.5" x2="1" y2="-0.25" width="0.127" layer="21" curve="-90"/>
<wire x1="1.25" y1="-0.5" x2="1.5" y2="-0.25" width="0.127" layer="21" curve="90"/>
<wire x1="1.25" y1="0" x2="1.5" y2="-0.25" width="0.127" layer="21" curve="-90"/>
<text x="-0.25" y="1" size="0.4064" layer="21">&gt;MUX 2x4:1</text>
</package>
<package name="UPS840E3">
<smd name="P$1" x="0" y="0" dx="5.344" dy="4.826" layer="1"/>
<smd name="P$2" x="3.815" y="0.9145" dx="0.762" dy="0.965" layer="1"/>
<smd name="P$3" x="3.815" y="-0.9145" dx="0.762" dy="0.965" layer="1"/>
<text x="-5.08" y="-3.81" size="1.27" layer="21" rot="R90">OUTPUT</text>
<text x="6.35" y="2.54" size="1.27" layer="21" rot="R270">INPUT</text>
<wire x1="-3.5" y1="3" x2="-3.5" y2="-3" width="0.127" layer="21"/>
<wire x1="-3.5" y1="-3" x2="4.75" y2="-3" width="0.127" layer="21"/>
<wire x1="4.75" y1="-3" x2="4.75" y2="3" width="0.127" layer="21"/>
<wire x1="4.75" y1="3" x2="-3.5" y2="3" width="0.127" layer="21"/>
<wire x1="2" y1="-4.5" x2="4.75" y2="-4.5" width="0.127" layer="21"/>
<wire x1="2" y1="-4.5" x2="2" y2="-3.5" width="0.127" layer="21"/>
<wire x1="2" y1="-4.5" x2="2" y2="-5.5" width="0.127" layer="21"/>
<wire x1="2" y1="-5.5" x2="0.25" y2="-4.5" width="0.127" layer="21"/>
<wire x1="0.25" y1="-4.5" x2="2" y2="-3.5" width="0.127" layer="21"/>
<wire x1="0.25" y1="-4.5" x2="0.25" y2="-3.5" width="0.127" layer="21"/>
<wire x1="0.25" y1="-3.5" x2="0.5" y2="-3.5" width="0.127" layer="21"/>
<wire x1="0.5" y1="-3.5" x2="0.5" y2="-3.75" width="0.127" layer="21"/>
<wire x1="0.25" y1="-4.5" x2="0.25" y2="-5.5" width="0.127" layer="21"/>
<wire x1="0.25" y1="-5.5" x2="0" y2="-5.5" width="0.127" layer="21"/>
<wire x1="0" y1="-5.5" x2="0" y2="-5.25" width="0.127" layer="21"/>
<wire x1="0.25" y1="-4.5" x2="-3" y2="-4.5" width="0.127" layer="21"/>
</package>
<package name="8-SOIC">
<smd name="P$1" x="0" y="0" dx="1.75" dy="0.65" layer="1"/>
<smd name="P$2" x="0" y="-1.27" dx="1.75" dy="0.65" layer="1"/>
<smd name="P$3" x="0" y="-2.54" dx="1.75" dy="0.65" layer="1"/>
<smd name="P$4" x="0" y="-3.81" dx="1.75" dy="0.65" layer="1"/>
<smd name="P$5" x="5.6" y="-3.81" dx="1.75" dy="0.65" layer="1"/>
<smd name="P$6" x="5.6" y="-2.54" dx="1.75" dy="0.65" layer="1"/>
<smd name="P$7" x="5.6" y="-1.27" dx="1.75" dy="0.65" layer="1"/>
<smd name="P$8" x="5.6" y="0" dx="1.75" dy="0.65" layer="1"/>
<wire x1="1.27" y1="0.635" x2="1.27" y2="-4.445" width="0.127" layer="21"/>
<wire x1="1.27" y1="-4.445" x2="4.445" y2="-4.445" width="0.127" layer="21"/>
<wire x1="4.445" y1="-4.445" x2="4.445" y2="0.635" width="0.127" layer="21"/>
<wire x1="2.2225" y1="0.635" x2="2.8575" y2="0" width="0.127" layer="21" curve="90"/>
<wire x1="2.8575" y1="0" x2="3.4925" y2="0.635" width="0.127" layer="21" curve="90"/>
<wire x1="3.4925" y1="0.635" x2="4.445" y2="0.635" width="0.127" layer="21"/>
<wire x1="2.2225" y1="0.635" x2="1.27" y2="0.635" width="0.127" layer="21"/>
<text x="-0.9525" y="1.5875" size="1.27" layer="21">&gt;ACS712</text>
<text x="-0.9525" y="-6.6675" size="1.27" layer="21">&gt;$NAME</text>
</package>
<package name="3557-2">
<pad name="P$1" x="0" y="0" drill="1.6" diameter="2.1844"/>
<pad name="P$2" x="0" y="-3.4" drill="1.6" diameter="2.1844"/>
<pad name="P$3" x="13.47" y="0" drill="1.6" diameter="2.1844"/>
<pad name="P$4" x="13.47" y="-3.4" drill="1.6" diameter="2.1844"/>
<wire x1="-1.905" y1="1.905" x2="-1.905" y2="-5.08" width="0.127" layer="21"/>
<wire x1="-1.905" y1="-5.08" x2="1.905" y2="-5.08" width="0.127" layer="21"/>
<wire x1="1.905" y1="-5.08" x2="11.43" y2="-5.08" width="0.127" layer="21"/>
<wire x1="11.43" y1="-5.08" x2="15.24" y2="-5.08" width="0.127" layer="21"/>
<wire x1="15.24" y1="-5.08" x2="15.24" y2="1.905" width="0.127" layer="21"/>
<wire x1="15.24" y1="1.905" x2="11.43" y2="1.905" width="0.127" layer="21"/>
<wire x1="11.43" y1="1.905" x2="1.905" y2="1.905" width="0.127" layer="21"/>
<wire x1="1.905" y1="1.905" x2="-1.905" y2="1.905" width="0.127" layer="21"/>
<wire x1="1.905" y1="1.905" x2="1.905" y2="-5.08" width="0.127" layer="21"/>
<wire x1="11.43" y1="1.905" x2="11.43" y2="-5.08" width="0.127" layer="21"/>
<text x="-1.905" y="2.54" size="1.27" layer="21">&gt;$NAME</text>
</package>
<package name="MAX232DR">
<smd name="P$1" x="0" y="0" dx="1.55" dy="0.6" layer="1"/>
<smd name="P$2" x="0" y="-1.27" dx="1.55" dy="0.6" layer="1"/>
<smd name="P$3" x="0" y="-2.54" dx="1.55" dy="0.6" layer="1"/>
<smd name="P$4" x="0" y="-3.81" dx="1.55" dy="0.6" layer="1"/>
<smd name="P$5" x="0" y="-5.08" dx="1.55" dy="0.6" layer="1"/>
<smd name="P$6" x="0" y="-6.35" dx="1.55" dy="0.6" layer="1"/>
<smd name="P$7" x="0" y="-7.62" dx="1.55" dy="0.6" layer="1"/>
<smd name="P$8" x="0" y="-8.89" dx="1.55" dy="0.6" layer="1"/>
<smd name="P$9" x="5.4" y="-8.89" dx="1.55" dy="0.6" layer="1"/>
<smd name="P$10" x="5.4" y="-7.62" dx="1.55" dy="0.6" layer="1"/>
<smd name="P$11" x="5.4" y="-6.35" dx="1.55" dy="0.6" layer="1"/>
<smd name="P$12" x="5.4" y="-5.08" dx="1.55" dy="0.6" layer="1"/>
<smd name="P$13" x="5.4" y="-3.81" dx="1.55" dy="0.6" layer="1"/>
<smd name="P$14" x="5.4" y="-2.54" dx="1.55" dy="0.6" layer="1"/>
<smd name="P$15" x="5.4" y="-1.27" dx="1.55" dy="0.6" layer="1"/>
<smd name="P$16" x="5.4" y="0" dx="1.55" dy="0.6" layer="1"/>
<wire x1="0.9525" y1="0.3175" x2="0.9525" y2="-9.2075" width="0.127" layer="21"/>
<wire x1="0.9525" y1="-9.2075" x2="4.445" y2="-9.2075" width="0.127" layer="21"/>
<wire x1="4.445" y1="-9.2075" x2="4.445" y2="0.3175" width="0.127" layer="21"/>
<wire x1="4.445" y1="0.3175" x2="3.4925" y2="0.3175" width="0.127" layer="21"/>
<wire x1="2.54" y1="-0.3175" x2="1.905" y2="0.3175" width="0.127" layer="21" curve="-90"/>
<wire x1="1.905" y1="0.3175" x2="0.9525" y2="0.3175" width="0.127" layer="21"/>
<wire x1="3.4925" y1="0.3175" x2="2.8575" y2="-0.3175" width="0.127" layer="21" curve="-90"/>
<wire x1="2.8575" y1="-0.3175" x2="2.54" y2="-0.3175" width="0.127" layer="21"/>
<text x="-0.635" y="-11.1125" size="1.27" layer="21">&gt;$NAME</text>
</package>
<package name="LM3490">
<smd name="P$1" x="0" y="0" dx="0.6" dy="1.05" layer="1"/>
<smd name="P$2" x="0.95" y="0" dx="0.6" dy="1.05" layer="1"/>
<smd name="P$3" x="1.9" y="0" dx="0.6" dy="1.05" layer="1"/>
<smd name="P$4" x="1.9" y="2.7" dx="0.6" dy="1.05" layer="1"/>
<smd name="P$5" x="0" y="2.7" dx="0.6" dy="1.05" layer="1"/>
<wire x1="3.175" y1="3.81" x2="-1.27" y2="3.81" width="0.127" layer="25"/>
<wire x1="-1.27" y1="3.81" x2="-1.27" y2="-1.27" width="0.127" layer="25"/>
<wire x1="-1.27" y1="-1.27" x2="3.175" y2="-1.27" width="0.127" layer="25"/>
<wire x1="3.175" y1="-1.27" x2="3.175" y2="3.81" width="0.127" layer="25"/>
<text x="-1.27" y="-2.54" size="0.6096" layer="25">&gt;$NAME</text>
</package>
</packages>
<symbols>
<symbol name="STP08CP05MTR">
<pin name="GND" x="-5.08" y="0" length="middle"/>
<pin name="SDI" x="-5.08" y="-2.54" length="middle"/>
<pin name="CLK" x="-5.08" y="-5.08" length="middle"/>
<pin name="LE" x="-5.08" y="-7.62" length="middle"/>
<pin name="OUT0" x="-5.08" y="-10.16" length="middle"/>
<pin name="OUT1" x="-5.08" y="-12.7" length="middle"/>
<pin name="OUT2" x="-5.08" y="-15.24" length="middle"/>
<pin name="OUT3" x="-5.08" y="-17.78" length="middle"/>
<pin name="OUT4" x="22.86" y="-17.78" length="middle" rot="R180"/>
<pin name="OUT5" x="22.86" y="-15.24" length="middle" rot="R180"/>
<pin name="OUT6" x="22.86" y="-12.7" length="middle" rot="R180"/>
<pin name="OUT7" x="22.86" y="-10.16" length="middle" rot="R180"/>
<pin name="!OE!" x="22.86" y="-7.62" length="middle" rot="R180"/>
<pin name="SDO" x="22.86" y="-5.08" length="middle" rot="R180"/>
<pin name="R-EXT" x="22.86" y="-2.54" length="middle" rot="R180"/>
<pin name="VCC" x="22.86" y="0" length="middle" rot="R180"/>
<wire x1="0" y1="2.54" x2="0" y2="-20.32" width="0.254" layer="94"/>
<wire x1="0" y1="-20.32" x2="17.78" y2="-20.32" width="0.254" layer="94"/>
<wire x1="17.78" y1="-20.32" x2="17.78" y2="2.54" width="0.254" layer="94"/>
<wire x1="17.78" y1="2.54" x2="0" y2="2.54" width="0.254" layer="94"/>
<text x="0" y="-22.86" size="1.778" layer="94">&gt;NAME</text>
<text x="0" y="-25.4" size="1.778" layer="94">STP08CP05MTR</text>
</symbol>
<symbol name="MPU-6050">
<pin name="CLKIN" x="-5.08" y="0" length="middle"/>
<pin name="NC_1" x="-5.08" y="-2.54" length="middle"/>
<pin name="NC_2" x="-5.08" y="-5.08" length="middle"/>
<pin name="NC_3" x="-5.08" y="-7.62" length="middle"/>
<pin name="NC_4" x="-5.08" y="-10.16" length="middle"/>
<pin name="AUX_DA" x="-5.08" y="-12.7" length="middle"/>
<pin name="AUX_CL" x="12.7" y="-25.4" length="middle" rot="R90"/>
<pin name="VLOGIC" x="15.24" y="-25.4" length="middle" rot="R90"/>
<pin name="AD0" x="17.78" y="-25.4" length="middle" rot="R90"/>
<pin name="REGOUT" x="20.32" y="-25.4" length="middle" rot="R90"/>
<pin name="FSYNC" x="22.86" y="-25.4" length="middle" rot="R90"/>
<pin name="INT" x="25.4" y="-25.4" length="middle" rot="R90"/>
<pin name="VDD" x="43.18" y="-12.7" length="middle" rot="R180"/>
<pin name="NC_5" x="43.18" y="-10.16" length="middle" rot="R180"/>
<pin name="NC_6" x="43.18" y="-7.62" length="middle" rot="R180"/>
<pin name="NC_7" x="43.18" y="-5.08" length="middle" rot="R180"/>
<pin name="NC_8" x="43.18" y="-2.54" length="middle" rot="R180"/>
<pin name="GND" x="43.18" y="0" length="middle" rot="R180"/>
<pin name="RESV_1" x="25.4" y="15.24" length="middle" rot="R270"/>
<pin name="CPOUT" x="22.86" y="15.24" length="middle" rot="R270"/>
<pin name="RESV_2" x="20.32" y="15.24" length="middle" rot="R270"/>
<pin name="RESV_3" x="17.78" y="15.24" length="middle" rot="R270"/>
<pin name="SCL" x="15.24" y="15.24" length="middle" rot="R270"/>
<pin name="SDA" x="12.7" y="15.24" length="middle" rot="R270"/>
<wire x1="0" y1="10.16" x2="38.1" y2="10.16" width="0.254" layer="94"/>
<wire x1="38.1" y1="10.16" x2="38.1" y2="-20.32" width="0.254" layer="94"/>
<wire x1="38.1" y1="-20.32" x2="0" y2="-20.32" width="0.254" layer="94"/>
<wire x1="0" y1="-20.32" x2="0" y2="10.16" width="0.254" layer="94"/>
</symbol>
<symbol name="CC25-2405SF-E">
<pin name="NC@1" x="-5.08" y="0" length="middle"/>
<pin name="NC@2" x="-5.08" y="2.54" length="middle"/>
<pin name="NC@3" x="-5.08" y="5.08" length="middle"/>
<pin name="RC" x="-5.08" y="7.62" length="middle"/>
<pin name="NC@4" x="-5.08" y="10.16" length="middle"/>
<pin name="NC@5" x="-5.08" y="12.7" length="middle"/>
<pin name="-VIN@1" x="-5.08" y="17.78" length="middle"/>
<pin name="-VIN@2" x="-5.08" y="20.32" length="middle"/>
<pin name="-VIN@3" x="-5.08" y="22.86" length="middle"/>
<pin name="+VIN@1" x="-5.08" y="27.94" length="middle"/>
<pin name="+VIN@2" x="-5.08" y="30.48" length="middle"/>
<pin name="+VIN@3" x="-5.08" y="33.02" length="middle"/>
<pin name="NC@6" x="-5.08" y="35.56" length="middle"/>
<pin name="NC@7" x="45.72" y="35.56" length="middle" rot="R180"/>
<pin name="+VOUT@1" x="45.72" y="33.02" length="middle" rot="R180"/>
<pin name="+VOUT@2" x="45.72" y="30.48" length="middle" rot="R180"/>
<pin name="+VOUT@3" x="45.72" y="27.94" length="middle" rot="R180"/>
<pin name="+VOUT@4" x="45.72" y="25.4" length="middle" rot="R180"/>
<pin name="-VOUT@1" x="45.72" y="22.86" length="middle" rot="R180"/>
<pin name="-VOUT@2" x="45.72" y="20.32" length="middle" rot="R180"/>
<pin name="-VOUT@3" x="45.72" y="17.78" length="middle" rot="R180"/>
<pin name="-VOUT@4" x="45.72" y="15.24" length="middle" rot="R180"/>
<pin name="-VOUT@5" x="45.72" y="12.7" length="middle" rot="R180"/>
<pin name="-VOUT@6" x="45.72" y="10.16" length="middle" rot="R180"/>
<pin name="NC@8" x="45.72" y="0" length="middle" rot="R180"/>
<wire x1="0" y1="38.1" x2="0" y2="-2.54" width="0.254" layer="94"/>
<wire x1="0" y1="-2.54" x2="40.64" y2="-2.54" width="0.254" layer="94"/>
<wire x1="40.64" y1="-2.54" x2="40.64" y2="38.1" width="0.254" layer="94"/>
<wire x1="40.64" y1="38.1" x2="0" y2="38.1" width="0.254" layer="94"/>
<text x="0" y="-7.62" size="1.778" layer="94">&gt;NAME</text>
<text x="0" y="-10.16" size="1.778" layer="94">CC25-2405SF-E</text>
</symbol>
<symbol name="ATMEGA-2560">
<pin name="(OC0B)-PG5" x="-5.08" y="0" length="middle"/>
<pin name="(RXD0/PCINT8)-PE0" x="-5.08" y="-2.54" length="middle"/>
<pin name="(TXD0)-PE1" x="-5.08" y="-5.08" length="middle"/>
<pin name="(XCK0/AIN0)-PE2" x="-5.08" y="-7.62" length="middle"/>
<pin name="(OC3A/AIN1)-PE3" x="-5.08" y="-10.16" length="middle"/>
<pin name="(OC3B/INT4)-PE4" x="-5.08" y="-12.7" length="middle"/>
<pin name="(OC3C/INT5)-PE5" x="-5.08" y="-15.24" length="middle"/>
<pin name="(T3/INT6)-PE6" x="-5.08" y="-17.78" length="middle"/>
<pin name="(CLKO/ICP3/INT7)-PE7" x="-5.08" y="-20.32" length="middle"/>
<pin name="VCC@1" x="-5.08" y="-22.86" length="middle"/>
<pin name="GND@1" x="-5.08" y="-25.4" length="middle"/>
<pin name="(RXD2)-PH0" x="-5.08" y="-27.94" length="middle"/>
<pin name="(TXD2)-PH1" x="-5.08" y="-30.48" length="middle"/>
<pin name="(XCK2)-PH2" x="-5.08" y="-33.02" length="middle"/>
<pin name="(OC4A)-PH3" x="-5.08" y="-35.56" length="middle"/>
<pin name="(OC4B)-PH4" x="-5.08" y="-38.1" length="middle"/>
<pin name="(OC4C)-PH5" x="-5.08" y="-40.64" length="middle"/>
<pin name="(OC2B)-PH6" x="-5.08" y="-43.18" length="middle"/>
<pin name="(!SS!/PCINT0)-PB0" x="-5.08" y="-45.72" length="middle"/>
<pin name="(SCK/PCINT1)-PB1" x="-5.08" y="-48.26" length="middle"/>
<pin name="(MOSI/PCINT2)-PB2" x="-5.08" y="-50.8" length="middle"/>
<pin name="(MISO/PCINT3)-PB3" x="-5.08" y="-53.34" length="middle"/>
<pin name="(OC2A/PCINT4)-PB4" x="-5.08" y="-55.88" length="middle"/>
<pin name="(OC1A/PCINT5)-PB5" x="-5.08" y="-58.42" length="middle"/>
<pin name="(OC1B/PCINT6)-PB6" x="-5.08" y="-60.96" length="middle"/>
<pin name="(OC0A/OC1C/PCINT7)-PB7" x="22.86" y="-88.9" length="middle" rot="R90"/>
<pin name="(T4)-PH7" x="25.4" y="-88.9" length="middle" rot="R90"/>
<pin name="(TOSC2)-PG3" x="27.94" y="-88.9" length="middle" rot="R90"/>
<pin name="(TOSC1)-PG4" x="30.48" y="-88.9" length="middle" rot="R90"/>
<pin name="!RESET!" x="33.02" y="-88.9" length="middle" rot="R90"/>
<pin name="VCC@2" x="35.56" y="-88.9" length="middle" rot="R90"/>
<pin name="GND@2" x="38.1" y="-88.9" length="middle" rot="R90"/>
<pin name="XTAL2" x="40.64" y="-88.9" length="middle" rot="R90"/>
<pin name="XTAL1" x="43.18" y="-88.9" length="middle" rot="R90"/>
<pin name="(ICP4)-PL0" x="45.72" y="-88.9" length="middle" rot="R90"/>
<pin name="(ICP5)-PL1" x="48.26" y="-88.9" length="middle" rot="R90"/>
<pin name="(T5)-PL2" x="50.8" y="-88.9" length="middle" rot="R90"/>
<pin name="(OC5A)-PL3" x="53.34" y="-88.9" length="middle" rot="R90"/>
<pin name="(OC5B)-PL4" x="55.88" y="-88.9" length="middle" rot="R90"/>
<pin name="(OC5C)-PL5" x="58.42" y="-88.9" length="middle" rot="R90"/>
<pin name="PL6" x="60.96" y="-88.9" length="middle" rot="R90"/>
<pin name="PL7" x="63.5" y="-88.9" length="middle" rot="R90"/>
<pin name="(SCL/INT0)-PD0" x="66.04" y="-88.9" length="middle" rot="R90"/>
<pin name="(SDA/INT1)-PD1" x="68.58" y="-88.9" length="middle" rot="R90"/>
<pin name="(RXD1/INT2)-PD2" x="71.12" y="-88.9" length="middle" rot="R90"/>
<pin name="(TXD1/INT3)-PD3" x="73.66" y="-88.9" length="middle" rot="R90"/>
<pin name="(ICP1)-PD4" x="76.2" y="-88.9" length="middle" rot="R90"/>
<pin name="(XCK1)-PD5" x="78.74" y="-88.9" length="middle" rot="R90"/>
<pin name="(T1)-PD6" x="81.28" y="-88.9" length="middle" rot="R90"/>
<pin name="(T0)-PD7" x="83.82" y="-88.9" length="middle" rot="R90"/>
<pin name="(!WR!)-PG0" x="116.84" y="-60.96" length="middle" rot="R180"/>
<pin name="(!RD!)-PG1" x="116.84" y="-58.42" length="middle" rot="R180"/>
<pin name="(A8)-PC0" x="116.84" y="-55.88" length="middle" rot="R180"/>
<pin name="(A9)-PC1" x="116.84" y="-53.34" length="middle" rot="R180"/>
<pin name="(A10)-PC2" x="116.84" y="-50.8" length="middle" rot="R180"/>
<pin name="(A11)-PC3" x="116.84" y="-48.26" length="middle" rot="R180"/>
<pin name="(A12)-PC4" x="116.84" y="-45.72" length="middle" rot="R180"/>
<pin name="(A13)-PC5" x="116.84" y="-43.18" length="middle" rot="R180"/>
<pin name="(A14)-PC6" x="116.84" y="-40.64" length="middle" rot="R180"/>
<pin name="(A15)-PC7" x="116.84" y="-38.1" length="middle" rot="R180"/>
<pin name="VCC@3" x="116.84" y="-35.56" length="middle" rot="R180"/>
<pin name="GND@3" x="116.84" y="-33.02" length="middle" rot="R180"/>
<pin name="(RXD3/PCINT9)-PJ0" x="116.84" y="-30.48" length="middle" rot="R180"/>
<pin name="(TXD3/PCINT10)-PJ1" x="116.84" y="-27.94" length="middle" rot="R180"/>
<pin name="(XCK3/PCINT11)-PJ2" x="116.84" y="-25.4" length="middle" rot="R180"/>
<pin name="(PCINT12)-PJ3" x="116.84" y="-22.86" length="middle" rot="R180"/>
<pin name="(PCINT13)-PJ4" x="116.84" y="-20.32" length="middle" rot="R180"/>
<pin name="(PCINT14)-PJ5" x="116.84" y="-17.78" length="middle" rot="R180"/>
<pin name="(PCINT15)-PJ6" x="116.84" y="-15.24" length="middle" rot="R180"/>
<pin name="(ALE)-PG2" x="116.84" y="-12.7" length="middle" rot="R180"/>
<pin name="(AD7)-PA7" x="116.84" y="-10.16" length="middle" rot="R180"/>
<pin name="(AD6)-PA6" x="116.84" y="-7.62" length="middle" rot="R180"/>
<pin name="(AD5)-PA5" x="116.84" y="-5.08" length="middle" rot="R180"/>
<pin name="(AD4)-PA4" x="116.84" y="-2.54" length="middle" rot="R180"/>
<pin name="(AD3)-PA3" x="116.84" y="0" length="middle" rot="R180"/>
<pin name="(AD2)-PA2" x="83.82" y="27.94" length="middle" rot="R270"/>
<pin name="(AD1)-PA1" x="81.28" y="27.94" length="middle" rot="R270"/>
<pin name="(AD0)-PA0" x="78.74" y="27.94" length="middle" rot="R270"/>
<pin name="PJ7" x="76.2" y="27.94" length="middle" rot="R270"/>
<pin name="VCC@4" x="73.66" y="27.94" length="middle" rot="R270"/>
<pin name="GND@4" x="71.12" y="27.94" length="middle" rot="R270"/>
<pin name="(ADC15/PCINT23)-PK7" x="68.58" y="27.94" length="middle" rot="R270"/>
<pin name="(ADC14/PCINT22)-PK6" x="66.04" y="27.94" length="middle" rot="R270"/>
<pin name="(ADC13/PCINT21)-PK5" x="63.5" y="27.94" length="middle" rot="R270"/>
<pin name="(ADC12/PCINT20)-PK4" x="60.96" y="27.94" length="middle" rot="R270"/>
<pin name="(ADC11/PCINT19)-PK3" x="58.42" y="27.94" length="middle" rot="R270"/>
<pin name="(ADC10/PCINT18)-PK2" x="55.88" y="27.94" length="middle" rot="R270"/>
<pin name="(ADC9/PCINT17)-PK1" x="53.34" y="27.94" length="middle" rot="R270"/>
<pin name="(ADC8/PCINT16)-PK0" x="50.8" y="27.94" length="middle" rot="R270"/>
<pin name="(ADC7/TDI)-PF7" x="48.26" y="27.94" length="middle" rot="R270"/>
<pin name="(ADC6/TDO)-PF6" x="45.72" y="27.94" length="middle" rot="R270"/>
<pin name="(ADC5/TMS)-PF5" x="43.18" y="27.94" length="middle" rot="R270"/>
<pin name="(ADC4/TCK)-PF4" x="40.64" y="27.94" length="middle" rot="R270"/>
<pin name="(ADC3)-PF3" x="38.1" y="27.94" length="middle" rot="R270"/>
<pin name="(ADC2)-PF2" x="35.56" y="27.94" length="middle" rot="R270"/>
<pin name="(ADC1)-PF1" x="33.02" y="27.94" length="middle" rot="R270"/>
<pin name="(ADC0)-PF0" x="30.48" y="27.94" length="middle" rot="R270"/>
<pin name="AREF" x="27.94" y="27.94" length="middle" rot="R270"/>
<pin name="GND@5" x="25.4" y="27.94" length="middle" rot="R270"/>
<pin name="AVCC" x="22.86" y="27.94" length="middle" rot="R270"/>
<wire x1="0" y1="22.86" x2="0" y2="-83.82" width="0.254" layer="94"/>
<wire x1="0" y1="-83.82" x2="111.76" y2="-83.82" width="0.254" layer="94"/>
<wire x1="111.76" y1="-83.82" x2="111.76" y2="22.86" width="0.254" layer="94"/>
<wire x1="111.76" y1="22.86" x2="0" y2="22.86" width="0.254" layer="94"/>
</symbol>
<symbol name="74HC153PW,118">
<pin name="1_I0" x="-2.54" y="-5.08" length="middle"/>
<pin name="1_I1" x="-2.54" y="-7.62" length="middle"/>
<pin name="1_I2" x="-2.54" y="-10.16" length="middle"/>
<pin name="1_I3" x="-2.54" y="-12.7" length="middle"/>
<pin name="1E" x="-2.54" y="-17.78" length="middle"/>
<pin name="2_I0" x="-2.54" y="-22.86" length="middle"/>
<pin name="2_I1" x="-2.54" y="-25.4" length="middle"/>
<pin name="2_I2" x="-2.54" y="-27.94" length="middle"/>
<pin name="2_I3" x="-2.54" y="-30.48" length="middle"/>
<pin name="2E" x="-2.54" y="-35.56" length="middle"/>
<pin name="GND" x="10.16" y="-45.72" length="middle" rot="R90"/>
<pin name="2OUT" x="22.86" y="-27.94" length="middle" rot="R180"/>
<pin name="1OUT" x="22.86" y="-10.16" length="middle" rot="R180"/>
<pin name="VCC" x="10.16" y="5.08" length="middle" rot="R270"/>
<wire x1="2.54" y1="0" x2="2.54" y2="-40.64" width="0.254" layer="94"/>
<wire x1="2.54" y1="-40.64" x2="17.78" y2="-40.64" width="0.254" layer="94"/>
<wire x1="17.78" y1="-40.64" x2="17.78" y2="0" width="0.254" layer="94"/>
<wire x1="17.78" y1="0" x2="2.54" y2="0" width="0.254" layer="94"/>
<pin name="S0" x="22.86" y="-35.56" length="middle" rot="R180"/>
<pin name="S1" x="22.86" y="-38.1" length="middle" rot="R180"/>
</symbol>
<symbol name="UPS840E3">
<wire x1="0" y1="0" x2="5.08" y2="0" width="0.254" layer="94"/>
<wire x1="5.08" y1="0" x2="5.08" y2="5.08" width="0.254" layer="94"/>
<wire x1="5.08" y1="0" x2="5.08" y2="-5.08" width="0.254" layer="94"/>
<wire x1="5.08" y1="-5.08" x2="15.24" y2="0" width="0.254" layer="94"/>
<wire x1="15.24" y1="0" x2="5.08" y2="5.08" width="0.254" layer="94"/>
<wire x1="15.24" y1="0" x2="15.24" y2="5.08" width="0.254" layer="94"/>
<wire x1="15.24" y1="5.08" x2="17.78" y2="5.08" width="0.254" layer="94"/>
<wire x1="17.78" y1="5.08" x2="17.78" y2="2.54" width="0.254" layer="94"/>
<wire x1="15.24" y1="0" x2="15.24" y2="-5.08" width="0.254" layer="94"/>
<wire x1="15.24" y1="-5.08" x2="12.7" y2="-5.08" width="0.254" layer="94"/>
<wire x1="12.7" y1="-5.08" x2="12.7" y2="-2.54" width="0.254" layer="94"/>
<wire x1="15.24" y1="0" x2="25.4" y2="0" width="0.254" layer="94"/>
<pin name="P$1" x="-5.08" y="0" visible="off" length="middle"/>
<pin name="P$2" x="30.48" y="0" visible="off" length="middle" rot="R180"/>
</symbol>
<symbol name="ACS712">
<pin name="IP+@1" x="-5.08" y="-2.54" length="middle"/>
<pin name="IP+@2" x="-5.08" y="-5.08" length="middle"/>
<pin name="IP-@1" x="-5.08" y="-7.62" length="middle"/>
<pin name="IP-@2" x="-5.08" y="-10.16" length="middle"/>
<pin name="VCC" x="22.86" y="-2.54" length="middle" rot="R180"/>
<pin name="VIOUT" x="22.86" y="-5.08" length="middle" rot="R180"/>
<pin name="FILTER" x="22.86" y="-7.62" length="middle" rot="R180"/>
<pin name="GND" x="22.86" y="-10.16" length="middle" rot="R180"/>
<wire x1="0" y1="0" x2="0" y2="-12.7" width="0.254" layer="94"/>
<wire x1="0" y1="-12.7" x2="17.78" y2="-12.7" width="0.254" layer="94"/>
<wire x1="17.78" y1="-12.7" x2="17.78" y2="0" width="0.254" layer="94"/>
<wire x1="17.78" y1="0" x2="0" y2="0" width="0.254" layer="94"/>
<text x="0" y="-15.24" size="1.778" layer="94">&gt;ACS712</text>
<text x="0" y="-17.78" size="1.778" layer="94">&gt;$NAME</text>
</symbol>
<symbol name="3557-2">
<wire x1="0" y1="0" x2="0" y2="-5.08" width="0.254" layer="94"/>
<wire x1="0" y1="-5.08" x2="2.54" y2="-5.08" width="0.254" layer="94"/>
<wire x1="2.54" y1="-5.08" x2="2.54" y2="0" width="0.254" layer="94"/>
<wire x1="2.54" y1="0" x2="0" y2="0" width="0.254" layer="94"/>
<wire x1="2.54" y1="0" x2="7.62" y2="0" width="0.254" layer="94"/>
<wire x1="7.62" y1="-5.08" x2="10.16" y2="-5.08" width="0.254" layer="94"/>
<wire x1="10.16" y1="-5.08" x2="10.16" y2="0" width="0.254" layer="94"/>
<wire x1="10.16" y1="0" x2="7.62" y2="0" width="0.254" layer="94"/>
<wire x1="7.62" y1="0" x2="7.62" y2="-5.08" width="0.254" layer="94"/>
<wire x1="7.62" y1="-5.08" x2="2.54" y2="-5.08" width="0.254" layer="94"/>
<rectangle x1="0" y1="-5.08" x2="2.54" y2="0" layer="94"/>
<rectangle x1="7.62" y1="-5.08" x2="10.16" y2="0" layer="94"/>
<pin name="IN" x="-5.08" y="-2.54" visible="off" length="middle"/>
<pin name="OUT" x="15.24" y="-2.54" visible="off" length="middle" rot="R180"/>
</symbol>
<symbol name="MAX232DR">
<pin name="VCC" x="10.16" y="5.08" length="middle" rot="R270"/>
<pin name="C1+" x="-5.08" y="-2.54" length="middle"/>
<pin name="C1-" x="-5.08" y="-5.08" length="middle"/>
<pin name="C2+" x="-5.08" y="-7.62" length="middle"/>
<pin name="C2-" x="-5.08" y="-10.16" length="middle"/>
<pin name="T1IN" x="-5.08" y="-12.7" length="middle"/>
<pin name="T2IN" x="-5.08" y="-15.24" length="middle"/>
<pin name="R1OUT" x="-5.08" y="-17.78" length="middle"/>
<pin name="R2OUT" x="-5.08" y="-20.32" length="middle"/>
<pin name="R2IN" x="25.4" y="-20.32" length="middle" rot="R180"/>
<pin name="R1IN" x="25.4" y="-17.78" length="middle" rot="R180"/>
<pin name="T2OUT" x="25.4" y="-15.24" length="middle" rot="R180"/>
<pin name="T1OUT" x="25.4" y="-12.7" length="middle" rot="R180"/>
<pin name="VS-" x="25.4" y="-7.62" length="middle" rot="R180"/>
<pin name="VS+" x="25.4" y="-5.08" length="middle" rot="R180"/>
<pin name="GND" x="10.16" y="-27.94" length="middle" rot="R90"/>
<wire x1="0" y1="0" x2="0" y2="-22.86" width="0.254" layer="94"/>
<wire x1="0" y1="-22.86" x2="20.32" y2="-22.86" width="0.254" layer="94"/>
<wire x1="20.32" y1="-22.86" x2="20.32" y2="0" width="0.254" layer="94"/>
<wire x1="20.32" y1="0" x2="0" y2="0" width="0.254" layer="94"/>
</symbol>
<symbol name="LM3490">
<pin name="IN" x="-5.08" y="0" length="middle"/>
<pin name="OUT" x="30.48" y="0" length="middle" rot="R180"/>
<pin name="GND" x="12.7" y="-10.16" length="middle" rot="R90"/>
<wire x1="0" y1="5.08" x2="0" y2="-5.08" width="0.254" layer="94"/>
<wire x1="0" y1="-5.08" x2="25.4" y2="-5.08" width="0.254" layer="94"/>
<wire x1="25.4" y1="-5.08" x2="25.4" y2="5.08" width="0.254" layer="94"/>
<wire x1="25.4" y1="5.08" x2="0" y2="5.08" width="0.254" layer="94"/>
</symbol>
</symbols>
<devicesets>
<deviceset name="STP08CP05MTR">
<gates>
<gate name="G$1" symbol="STP08CP05MTR" x="0" y="0"/>
</gates>
<devices>
<device name="SO-16" package="SO-16">
<connects>
<connect gate="G$1" pin="!OE!" pad="P$13"/>
<connect gate="G$1" pin="CLK" pad="P$3"/>
<connect gate="G$1" pin="GND" pad="P$1"/>
<connect gate="G$1" pin="LE" pad="P$4"/>
<connect gate="G$1" pin="OUT0" pad="P$5"/>
<connect gate="G$1" pin="OUT1" pad="P$6"/>
<connect gate="G$1" pin="OUT2" pad="P$7"/>
<connect gate="G$1" pin="OUT3" pad="P$8"/>
<connect gate="G$1" pin="OUT4" pad="P$9"/>
<connect gate="G$1" pin="OUT5" pad="P$10"/>
<connect gate="G$1" pin="OUT6" pad="P$11"/>
<connect gate="G$1" pin="OUT7" pad="P$12"/>
<connect gate="G$1" pin="R-EXT" pad="P$15"/>
<connect gate="G$1" pin="SDI" pad="P$2"/>
<connect gate="G$1" pin="SDO" pad="P$14"/>
<connect gate="G$1" pin="VCC" pad="P$16"/>
</connects>
<technologies>
<technology name=""/>
</technologies>
</device>
</devices>
</deviceset>
<deviceset name="MPU-6050">
<gates>
<gate name="G$1" symbol="MPU-6050" x="-20.32" y="5.08"/>
</gates>
<devices>
<device name="" package="MPU-6050">
<connects>
<connect gate="G$1" pin="AD0" pad="P$9"/>
<connect gate="G$1" pin="AUX_CL" pad="P$7"/>
<connect gate="G$1" pin="AUX_DA" pad="P$6"/>
<connect gate="G$1" pin="CLKIN" pad="P$1"/>
<connect gate="G$1" pin="CPOUT" pad="P$20"/>
<connect gate="G$1" pin="FSYNC" pad="P$11"/>
<connect gate="G$1" pin="GND" pad="P$18"/>
<connect gate="G$1" pin="INT" pad="P$12"/>
<connect gate="G$1" pin="NC_1" pad="P$2"/>
<connect gate="G$1" pin="NC_2" pad="P$3"/>
<connect gate="G$1" pin="NC_3" pad="P$4"/>
<connect gate="G$1" pin="NC_4" pad="P$5"/>
<connect gate="G$1" pin="NC_5" pad="P$14"/>
<connect gate="G$1" pin="NC_6" pad="P$15"/>
<connect gate="G$1" pin="NC_7" pad="P$16"/>
<connect gate="G$1" pin="NC_8" pad="P$17"/>
<connect gate="G$1" pin="REGOUT" pad="P$10"/>
<connect gate="G$1" pin="RESV_1" pad="P$19"/>
<connect gate="G$1" pin="RESV_2" pad="P$21"/>
<connect gate="G$1" pin="RESV_3" pad="P$22"/>
<connect gate="G$1" pin="SCL" pad="P$23"/>
<connect gate="G$1" pin="SDA" pad="P$24"/>
<connect gate="G$1" pin="VDD" pad="P$13"/>
<connect gate="G$1" pin="VLOGIC" pad="P$8"/>
</connects>
<technologies>
<technology name=""/>
</technologies>
</device>
</devices>
</deviceset>
<deviceset name="CC25-2405SF-E">
<gates>
<gate name="G$1" symbol="CC25-2405SF-E" x="-20.32" y="-17.78"/>
</gates>
<devices>
<device name="" package="CC25-XXXXXF-E">
<connects>
<connect gate="G$1" pin="+VIN@1" pad="P$10"/>
<connect gate="G$1" pin="+VIN@2" pad="P$11"/>
<connect gate="G$1" pin="+VIN@3" pad="P$12"/>
<connect gate="G$1" pin="+VOUT@1" pad="P$15"/>
<connect gate="G$1" pin="+VOUT@2" pad="P$16"/>
<connect gate="G$1" pin="+VOUT@3" pad="P$17"/>
<connect gate="G$1" pin="+VOUT@4" pad="P$18"/>
<connect gate="G$1" pin="-VIN@1" pad="P$7"/>
<connect gate="G$1" pin="-VIN@2" pad="P$8"/>
<connect gate="G$1" pin="-VIN@3" pad="P$9"/>
<connect gate="G$1" pin="-VOUT@1" pad="P$19"/>
<connect gate="G$1" pin="-VOUT@2" pad="P$20"/>
<connect gate="G$1" pin="-VOUT@3" pad="P$21"/>
<connect gate="G$1" pin="-VOUT@4" pad="P$22"/>
<connect gate="G$1" pin="-VOUT@5" pad="P$23"/>
<connect gate="G$1" pin="-VOUT@6" pad="P$24"/>
<connect gate="G$1" pin="NC@1" pad="P$1"/>
<connect gate="G$1" pin="NC@2" pad="P$2"/>
<connect gate="G$1" pin="NC@3" pad="P$3"/>
<connect gate="G$1" pin="NC@4" pad="P$5"/>
<connect gate="G$1" pin="NC@5" pad="P$6"/>
<connect gate="G$1" pin="NC@6" pad="P$13"/>
<connect gate="G$1" pin="NC@7" pad="P$14"/>
<connect gate="G$1" pin="NC@8" pad="P$25"/>
<connect gate="G$1" pin="RC" pad="P$4"/>
</connects>
<technologies>
<technology name=""/>
</technologies>
</device>
</devices>
</deviceset>
<deviceset name="ATMEGA2560">
<gates>
<gate name="G$1" symbol="ATMEGA-2560" x="-58.42" y="27.94"/>
</gates>
<devices>
<device name="" package="ATMEGA-2560">
<connects>
<connect gate="G$1" pin="!RESET!" pad="P$30"/>
<connect gate="G$1" pin="(!RD!)-PG1" pad="P$52"/>
<connect gate="G$1" pin="(!SS!/PCINT0)-PB0" pad="P$19"/>
<connect gate="G$1" pin="(!WR!)-PG0" pad="P$51"/>
<connect gate="G$1" pin="(A10)-PC2" pad="P$55"/>
<connect gate="G$1" pin="(A11)-PC3" pad="P$56"/>
<connect gate="G$1" pin="(A12)-PC4" pad="P$57"/>
<connect gate="G$1" pin="(A13)-PC5" pad="P$58"/>
<connect gate="G$1" pin="(A14)-PC6" pad="P$59"/>
<connect gate="G$1" pin="(A15)-PC7" pad="P$60"/>
<connect gate="G$1" pin="(A8)-PC0" pad="P$53"/>
<connect gate="G$1" pin="(A9)-PC1" pad="P$54"/>
<connect gate="G$1" pin="(AD0)-PA0" pad="P$78"/>
<connect gate="G$1" pin="(AD1)-PA1" pad="P$77"/>
<connect gate="G$1" pin="(AD2)-PA2" pad="P$76"/>
<connect gate="G$1" pin="(AD3)-PA3" pad="P$75"/>
<connect gate="G$1" pin="(AD4)-PA4" pad="P$74"/>
<connect gate="G$1" pin="(AD5)-PA5" pad="P$73"/>
<connect gate="G$1" pin="(AD6)-PA6" pad="P$72"/>
<connect gate="G$1" pin="(AD7)-PA7" pad="P$71"/>
<connect gate="G$1" pin="(ADC0)-PF0" pad="P$97"/>
<connect gate="G$1" pin="(ADC1)-PF1" pad="P$96"/>
<connect gate="G$1" pin="(ADC10/PCINT18)-PK2" pad="P$87"/>
<connect gate="G$1" pin="(ADC11/PCINT19)-PK3" pad="P$86"/>
<connect gate="G$1" pin="(ADC12/PCINT20)-PK4" pad="P$85"/>
<connect gate="G$1" pin="(ADC13/PCINT21)-PK5" pad="P$84"/>
<connect gate="G$1" pin="(ADC14/PCINT22)-PK6" pad="P$83"/>
<connect gate="G$1" pin="(ADC15/PCINT23)-PK7" pad="P$82"/>
<connect gate="G$1" pin="(ADC2)-PF2" pad="P$95"/>
<connect gate="G$1" pin="(ADC3)-PF3" pad="P$94"/>
<connect gate="G$1" pin="(ADC4/TCK)-PF4" pad="P$93"/>
<connect gate="G$1" pin="(ADC5/TMS)-PF5" pad="P$92"/>
<connect gate="G$1" pin="(ADC6/TDO)-PF6" pad="P$91"/>
<connect gate="G$1" pin="(ADC7/TDI)-PF7" pad="P$90"/>
<connect gate="G$1" pin="(ADC8/PCINT16)-PK0" pad="P$89"/>
<connect gate="G$1" pin="(ADC9/PCINT17)-PK1" pad="P$88"/>
<connect gate="G$1" pin="(ALE)-PG2" pad="P$70"/>
<connect gate="G$1" pin="(CLKO/ICP3/INT7)-PE7" pad="P$9"/>
<connect gate="G$1" pin="(ICP1)-PD4" pad="P$47"/>
<connect gate="G$1" pin="(ICP4)-PL0" pad="P$35"/>
<connect gate="G$1" pin="(ICP5)-PL1" pad="P$36"/>
<connect gate="G$1" pin="(MISO/PCINT3)-PB3" pad="P$22"/>
<connect gate="G$1" pin="(MOSI/PCINT2)-PB2" pad="P$21"/>
<connect gate="G$1" pin="(OC0A/OC1C/PCINT7)-PB7" pad="P$26"/>
<connect gate="G$1" pin="(OC0B)-PG5" pad="P$1"/>
<connect gate="G$1" pin="(OC1A/PCINT5)-PB5" pad="P$24"/>
<connect gate="G$1" pin="(OC1B/PCINT6)-PB6" pad="P$25"/>
<connect gate="G$1" pin="(OC2A/PCINT4)-PB4" pad="P$23"/>
<connect gate="G$1" pin="(OC2B)-PH6" pad="P$18"/>
<connect gate="G$1" pin="(OC3A/AIN1)-PE3" pad="P$5"/>
<connect gate="G$1" pin="(OC3B/INT4)-PE4" pad="P$6"/>
<connect gate="G$1" pin="(OC3C/INT5)-PE5" pad="P$7"/>
<connect gate="G$1" pin="(OC4A)-PH3" pad="P$15"/>
<connect gate="G$1" pin="(OC4B)-PH4" pad="P$16"/>
<connect gate="G$1" pin="(OC4C)-PH5" pad="P$17"/>
<connect gate="G$1" pin="(OC5A)-PL3" pad="P$38"/>
<connect gate="G$1" pin="(OC5B)-PL4" pad="P$39"/>
<connect gate="G$1" pin="(OC5C)-PL5" pad="P$40"/>
<connect gate="G$1" pin="(PCINT12)-PJ3" pad="P$66"/>
<connect gate="G$1" pin="(PCINT13)-PJ4" pad="P$67"/>
<connect gate="G$1" pin="(PCINT14)-PJ5" pad="P$68"/>
<connect gate="G$1" pin="(PCINT15)-PJ6" pad="P$69"/>
<connect gate="G$1" pin="(RXD0/PCINT8)-PE0" pad="P$2"/>
<connect gate="G$1" pin="(RXD1/INT2)-PD2" pad="P$45"/>
<connect gate="G$1" pin="(RXD2)-PH0" pad="P$12"/>
<connect gate="G$1" pin="(RXD3/PCINT9)-PJ0" pad="P$63"/>
<connect gate="G$1" pin="(SCK/PCINT1)-PB1" pad="P$20"/>
<connect gate="G$1" pin="(SCL/INT0)-PD0" pad="P$43"/>
<connect gate="G$1" pin="(SDA/INT1)-PD1" pad="P$44"/>
<connect gate="G$1" pin="(T0)-PD7" pad="P$50"/>
<connect gate="G$1" pin="(T1)-PD6" pad="P$49"/>
<connect gate="G$1" pin="(T3/INT6)-PE6" pad="P$8"/>
<connect gate="G$1" pin="(T4)-PH7" pad="P$27"/>
<connect gate="G$1" pin="(T5)-PL2" pad="P$37"/>
<connect gate="G$1" pin="(TOSC1)-PG4" pad="P$29"/>
<connect gate="G$1" pin="(TOSC2)-PG3" pad="P$28"/>
<connect gate="G$1" pin="(TXD0)-PE1" pad="P$3"/>
<connect gate="G$1" pin="(TXD1/INT3)-PD3" pad="P$46"/>
<connect gate="G$1" pin="(TXD2)-PH1" pad="P$13"/>
<connect gate="G$1" pin="(TXD3/PCINT10)-PJ1" pad="P$64"/>
<connect gate="G$1" pin="(XCK0/AIN0)-PE2" pad="P$4"/>
<connect gate="G$1" pin="(XCK1)-PD5" pad="P$48"/>
<connect gate="G$1" pin="(XCK2)-PH2" pad="P$14"/>
<connect gate="G$1" pin="(XCK3/PCINT11)-PJ2" pad="P$65"/>
<connect gate="G$1" pin="AREF" pad="P$98"/>
<connect gate="G$1" pin="AVCC" pad="P$100"/>
<connect gate="G$1" pin="GND@1" pad="P$11"/>
<connect gate="G$1" pin="GND@2" pad="P$32"/>
<connect gate="G$1" pin="GND@3" pad="P$62"/>
<connect gate="G$1" pin="GND@4" pad="P$81"/>
<connect gate="G$1" pin="GND@5" pad="P$99"/>
<connect gate="G$1" pin="PJ7" pad="P$79"/>
<connect gate="G$1" pin="PL6" pad="P$41"/>
<connect gate="G$1" pin="PL7" pad="P$42"/>
<connect gate="G$1" pin="VCC@1" pad="P$10"/>
<connect gate="G$1" pin="VCC@2" pad="P$31"/>
<connect gate="G$1" pin="VCC@3" pad="P$61"/>
<connect gate="G$1" pin="VCC@4" pad="P$80"/>
<connect gate="G$1" pin="XTAL1" pad="P$34"/>
<connect gate="G$1" pin="XTAL2" pad="P$33"/>
</connects>
<technologies>
<technology name=""/>
</technologies>
</device>
</devices>
</deviceset>
<deviceset name="74HC153PW,118">
<gates>
<gate name="G$1" symbol="74HC153PW,118" x="-2.54" y="0"/>
</gates>
<devices>
<device name="" package="16-TSSOP">
<connects>
<connect gate="G$1" pin="1E" pad="P$1"/>
<connect gate="G$1" pin="1OUT" pad="P$7"/>
<connect gate="G$1" pin="1_I0" pad="P$6"/>
<connect gate="G$1" pin="1_I1" pad="P$5"/>
<connect gate="G$1" pin="1_I2" pad="P$4"/>
<connect gate="G$1" pin="1_I3" pad="P$3"/>
<connect gate="G$1" pin="2E" pad="P$15"/>
<connect gate="G$1" pin="2OUT" pad="P$9"/>
<connect gate="G$1" pin="2_I0" pad="P$10"/>
<connect gate="G$1" pin="2_I1" pad="P$11"/>
<connect gate="G$1" pin="2_I2" pad="P$12"/>
<connect gate="G$1" pin="2_I3" pad="P$13"/>
<connect gate="G$1" pin="GND" pad="P$8"/>
<connect gate="G$1" pin="S0" pad="P$14"/>
<connect gate="G$1" pin="S1" pad="P$2"/>
<connect gate="G$1" pin="VCC" pad="P$16"/>
</connects>
<technologies>
<technology name=""/>
</technologies>
</device>
</devices>
</deviceset>
<deviceset name="UPS840E3" uservalue="yes">
<gates>
<gate name="G$1" symbol="UPS840E3" x="-15.24" y="0"/>
</gates>
<devices>
<device name="" package="UPS840E3">
<connects>
<connect gate="G$1" pin="P$1" pad="P$2 P$3"/>
<connect gate="G$1" pin="P$2" pad="P$1"/>
</connects>
<technologies>
<technology name=""/>
</technologies>
</device>
</devices>
</deviceset>
<deviceset name="ACS712">
<gates>
<gate name="G$1" symbol="ACS712" x="0" y="0"/>
</gates>
<devices>
<device name="" package="8-SOIC">
<connects>
<connect gate="G$1" pin="FILTER" pad="P$6"/>
<connect gate="G$1" pin="GND" pad="P$5"/>
<connect gate="G$1" pin="IP+@1" pad="P$1"/>
<connect gate="G$1" pin="IP+@2" pad="P$2"/>
<connect gate="G$1" pin="IP-@1" pad="P$3"/>
<connect gate="G$1" pin="IP-@2" pad="P$4"/>
<connect gate="G$1" pin="VCC" pad="P$8"/>
<connect gate="G$1" pin="VIOUT" pad="P$7"/>
</connects>
<technologies>
<technology name=""/>
</technologies>
</device>
</devices>
</deviceset>
<deviceset name="3557-2">
<gates>
<gate name="G$1" symbol="3557-2" x="0" y="0"/>
</gates>
<devices>
<device name="" package="3557-2">
<connects>
<connect gate="G$1" pin="IN" pad="P$1 P$2"/>
<connect gate="G$1" pin="OUT" pad="P$3 P$4"/>
</connects>
<technologies>
<technology name=""/>
</technologies>
</device>
</devices>
</deviceset>
<deviceset name="MAX232DR">
<gates>
<gate name="G$1" symbol="MAX232DR" x="0" y="-2.54"/>
</gates>
<devices>
<device name="" package="MAX232DR">
<connects>
<connect gate="G$1" pin="C1+" pad="P$1"/>
<connect gate="G$1" pin="C1-" pad="P$3"/>
<connect gate="G$1" pin="C2+" pad="P$4"/>
<connect gate="G$1" pin="C2-" pad="P$5"/>
<connect gate="G$1" pin="GND" pad="P$15"/>
<connect gate="G$1" pin="R1IN" pad="P$13"/>
<connect gate="G$1" pin="R1OUT" pad="P$12"/>
<connect gate="G$1" pin="R2IN" pad="P$8"/>
<connect gate="G$1" pin="R2OUT" pad="P$9"/>
<connect gate="G$1" pin="T1IN" pad="P$11"/>
<connect gate="G$1" pin="T1OUT" pad="P$14"/>
<connect gate="G$1" pin="T2IN" pad="P$10"/>
<connect gate="G$1" pin="T2OUT" pad="P$7"/>
<connect gate="G$1" pin="VCC" pad="P$16"/>
<connect gate="G$1" pin="VS+" pad="P$2"/>
<connect gate="G$1" pin="VS-" pad="P$6"/>
</connects>
<technologies>
<technology name=""/>
</technologies>
</device>
</devices>
</deviceset>
<deviceset name="LM3490">
<gates>
<gate name="G$1" symbol="LM3490" x="-12.7" y="0"/>
</gates>
<devices>
<device name="" package="LM3490">
<connects>
<connect gate="G$1" pin="GND" pad="P$2"/>
<connect gate="G$1" pin="IN" pad="P$4"/>
<connect gate="G$1" pin="OUT" pad="P$5"/>
</connects>
<technologies>
<technology name=""/>
</technologies>
</device>
</devices>
</deviceset>
</devicesets>
</library>
</drawing>
</eagle>
